mc16_13TeV:mc16_13TeV.301254.Pythia8EvtGen_A14NNPDF23LO_Wprime_WZqqqq_m400.deriv.DAOD_FTAG5.e3749_s3126_r9364_r9315_p3452
mc16_13TeV:mc16_13TeV.301255.Pythia8EvtGen_A14NNPDF23LO_Wprime_WZqqqq_m600.deriv.DAOD_FTAG5.e3749_s3126_r9364_r9315_p3452
mc16_13TeV:mc16_13TeV.301256.Pythia8EvtGen_A14NNPDF23LO_Wprime_WZqqqq_m800.deriv.DAOD_FTAG5.e3743_s3126_r9364_r9315_p3452
mc16_13TeV:mc16_13TeV.301257.Pythia8EvtGen_A14NNPDF23LO_Wprime_WZqqqq_m1000.deriv.DAOD_FTAG5.e3749_s3126_r9364_r9315_p3452
mc16_13TeV:mc16_13TeV.301258.Pythia8EvtGen_A14NNPDF23LO_Wprime_WZqqqq_m1100.deriv.DAOD_FTAG5.e3743_s3126_r9364_r9315_p3452
mc16_13TeV:mc16_13TeV.301259.Pythia8EvtGen_A14NNPDF23LO_Wprime_WZqqqq_m1200.deriv.DAOD_FTAG5.e3743_s3126_r9364_r9315_p3452
mc16_13TeV:mc16_13TeV.301260.Pythia8EvtGen_A14NNPDF23LO_Wprime_WZqqqq_m1300.deriv.DAOD_FTAG5.e3743_s3126_r9364_r9315_p3452
mc16_13TeV:mc16_13TeV.301261.Pythia8EvtGen_A14NNPDF23LO_Wprime_WZqqqq_m1400.deriv.DAOD_FTAG5.e3743_s3126_r9364_r9315_p3452
mc16_13TeV:mc16_13TeV.301262.Pythia8EvtGen_A14NNPDF23LO_Wprime_WZqqqq_m1500.deriv.DAOD_FTAG5.e3743_s3126_r9364_r9315_p3452
mc16_13TeV:mc16_13TeV.301263.Pythia8EvtGen_A14NNPDF23LO_Wprime_WZqqqq_m1600.deriv.DAOD_FTAG5.e3743_s3126_r9364_r9315_p3452
mc16_13TeV:mc16_13TeV.301264.Pythia8EvtGen_A14NNPDF23LO_Wprime_WZqqqq_m1700.deriv.DAOD_FTAG5.e3743_s3126_r9364_r9315_p3452
mc16_13TeV:mc16_13TeV.301265.Pythia8EvtGen_A14NNPDF23LO_Wprime_WZqqqq_m1800.deriv.DAOD_FTAG5.e3743_s3126_r9364_r9315_p3452
mc16_13TeV:mc16_13TeV.301266.Pythia8EvtGen_A14NNPDF23LO_Wprime_WZqqqq_m1900.deriv.DAOD_FTAG5.e3743_s3126_r9364_r9315_p3452
mc16_13TeV:mc16_13TeV.301267.Pythia8EvtGen_A14NNPDF23LO_Wprime_WZqqqq_m2000.deriv.DAOD_FTAG5.e3749_s3126_r9364_r9315_p3452
mc16_13TeV:mc16_13TeV.301268.Pythia8EvtGen_A14NNPDF23LO_Wprime_WZqqqq_m2100.deriv.DAOD_FTAG5.e3743_s3126_r9364_r9315_p3452
mc16_13TeV:mc16_13TeV.301269.Pythia8EvtGen_A14NNPDF23LO_Wprime_WZqqqq_m2200.deriv.DAOD_FTAG5.e3743_s3126_r9364_r9315_p3452
mc16_13TeV:mc16_13TeV.301270.Pythia8EvtGen_A14NNPDF23LO_Wprime_WZqqqq_m2300.deriv.DAOD_FTAG5.e3743_s3126_r9364_r9315_p3452
mc16_13TeV:mc16_13TeV.301271.Pythia8EvtGen_A14NNPDF23LO_Wprime_WZqqqq_m2400.deriv.DAOD_FTAG5.e3743_s3126_r9364_r9315_p3452
mc16_13TeV:mc16_13TeV.301272.Pythia8EvtGen_A14NNPDF23LO_Wprime_WZqqqq_m2500.deriv.DAOD_FTAG5.e3743_s3126_r9364_r9315_p3452
mc16_13TeV:mc16_13TeV.301273.Pythia8EvtGen_A14NNPDF23LO_Wprime_WZqqqq_m2600.deriv.DAOD_FTAG5.e3743_s3126_r9364_r9315_p3452
mc16_13TeV:mc16_13TeV.301274.Pythia8EvtGen_A14NNPDF23LO_Wprime_WZqqqq_m2700.deriv.DAOD_FTAG5.e3743_s3126_r9364_r9315_p3452
mc16_13TeV:mc16_13TeV.301275.Pythia8EvtGen_A14NNPDF23LO_Wprime_WZqqqq_m2800.deriv.DAOD_FTAG5.e3743_s3126_r9364_r9315_p3452
mc16_13TeV:mc16_13TeV.301276.Pythia8EvtGen_A14NNPDF23LO_Wprime_WZqqqq_m2900.deriv.DAOD_FTAG5.e3743_s3126_r9364_r9315_p3452
mc16_13TeV:mc16_13TeV.301277.Pythia8EvtGen_A14NNPDF23LO_Wprime_WZqqqq_m3000.deriv.DAOD_FTAG5.e3743_s3126_r9364_r9315_p3452
mc16_13TeV:mc16_13TeV.301278.Pythia8EvtGen_A14NNPDF23LO_Wprime_WZqqqq_m3200.deriv.DAOD_FTAG5.e3743_s3126_r9364_r9315_p3452
mc16_13TeV:mc16_13TeV.301279.Pythia8EvtGen_A14NNPDF23LO_Wprime_WZqqqq_m3400.deriv.DAOD_FTAG5.e3743_s3126_r9364_r9315_p3452
mc16_13TeV:mc16_13TeV.301280.Pythia8EvtGen_A14NNPDF23LO_Wprime_WZqqqq_m3600.deriv.DAOD_FTAG5.e3743_s3126_r9364_r9315_p3452
mc16_13TeV:mc16_13TeV.301281.Pythia8EvtGen_A14NNPDF23LO_Wprime_WZqqqq_m3800.deriv.DAOD_FTAG5.e3743_s3126_r9364_r9315_p3452
mc16_13TeV:mc16_13TeV.301282.Pythia8EvtGen_A14NNPDF23LO_Wprime_WZqqqq_m4000.deriv.DAOD_FTAG5.e3743_s3126_r9364_r9315_p3452
mc16_13TeV:mc16_13TeV.301283.Pythia8EvtGen_A14NNPDF23LO_Wprime_WZqqqq_m4200.deriv.DAOD_FTAG5.e3743_s3126_r9364_r9315_p3452
mc16_13TeV:mc16_13TeV.301284.Pythia8EvtGen_A14NNPDF23LO_Wprime_WZqqqq_m4400.deriv.DAOD_FTAG5.e3743_s3126_r9364_r9315_p3452
mc16_13TeV:mc16_13TeV.301285.Pythia8EvtGen_A14NNPDF23LO_Wprime_WZqqqq_m4600.deriv.DAOD_FTAG5.e3743_s3126_r9364_r9315_p3452
mc16_13TeV:mc16_13TeV.301286.Pythia8EvtGen_A14NNPDF23LO_Wprime_WZqqqq_m4800.deriv.DAOD_FTAG5.e3743_s3126_r9364_r9315_p3452
mc16_13TeV:mc16_13TeV.301287.Pythia8EvtGen_A14NNPDF23LO_Wprime_WZqqqq_m5000.deriv.DAOD_FTAG5.e3743_s3126_r9364_r9315_p3452
