{
    "jet_collection": "AntiKt4EMPFlow",
    "jet_calib_file": "JES_data2017_2016_2015_Consolidated_PFlow_2018_Rel21.config",
    "cal_seq": "JetArea_Residual_EtaJES_GSC_Smear",
    "cal_area": "00-04-82",
    "do_calibration": "true",
    "run_augmenters": "true",
    "vr_cuts": "false",
    "jvt_cut": 0.5,
    "pt_cut": 20000,
    "n_tracks_to_save": 40,
    "track_sort_order": "d0_significance",
    "nn_file_paths": ["dev/flavtag/march2018/iprnn/antikt4emtopo/lwtnn-model.json",
      "dev/flavtag/march2018/smt/antikt4empflow/extended_hybrid.json",
      "dev/flavtag/march2018/dl1/antikt4empflow/network.json",
      "dev/flavtag/march2018/dl1r/antikt4empflow/network.json",
      "dev/flavtag/march2018/dl1rmu/antikt4empflow/network.json"],
    "variables": {
        "btag": {
            "file": "single-btag-variables.json",
            "floats": [
                "iprnn_pu", "iprnn_pc", "iprnn_pb", "iprnn_ptau",
                "smt_b", "smt_c", "smt_u",
                "dl1_pu", "dl1_pc", "dl1_pb",
                "dl1r_pu", "dl1r_pc", "dl1r_pb",
                "dl1rmu_pu", "dl1rmu_pc", "dl1rmu_pb"
            ]
        },
        "track": {
            "file": "single-btag-track-variables.json"
        }
    }
}
