{
    "jet_collection": "AntiKtVR30Rmax4Rmin02TrackJets_BTagging201903",
    "do_calibration": "false",
    "run_augmenters": "false",
    "vr_cuts": "true",
    "n_tracks_to_save": 40,
    "pt_cut": 10000,
    "track_sort_order": "d0_significance",
    "nn_file_paths": [],
    "variables": {
        "btag": {
            "file": "single-btag-variables.json",
            "jet_int_variables": ["vr_overlap"]
        },
        "track": {
            "file": "single-btag-track-variables.json"
        }
    }
}
