{
    "doubles": [
        "MV2c10_discriminant",
        "DL1r_pu", "DL1r_pc", "DL1r_pb",
        "DL1_pu", "DL1_pc", "DL1_pb",
        "IP2D_pu", "IP2D_pc", "IP2D_pb",
        "IP3D_pu", "IP3D_pc", "IP3D_pb",
        "SV1_pu", "SV1_pc", "SV1_pb",
        "rnnip_pu", "rnnip_pc", "rnnip_pb", "rnnip_ptau"
    ],
    "floats": [
        "JetFitter_energyFraction",
        "JetFitter_mass",
        "JetFitter_significance3d",
        "JetFitter_deltaphi",
        "JetFitter_deltaeta",
        "JetFitter_massUncorr",
        "JetFitter_dRFlightDir",
        "SV1_masssvx",
        "SV1_efracsvx",
        "SV1_significance3d",
        "SV1_dstToMatLay",
        "SV1_deltaR",
        "SV1_Lxy",
        "SV1_L3d"
    ],
    "ints": [
        "JetFitter_nVTX",
        "JetFitter_nSingleTracks",
        "JetFitter_nTracksAtVtx",
        "JetFitter_N2Tpair",
        "SV1_N2Tpair",
        "SV1_NGTinSvx"
    ],
    "chars": [
    ],
    "jet_ints": [
        "GhostBHadronsFinalCount",
        "GhostCHadronsFinalCount",
        "HadronConeExclTruthLabelID",
        "HadronConeExclExtendedTruthLabelID"
    ]
}
